Introduction to data visualization with ggplot2
…
There is no analysis where you do not have to transform the data

Data transformations 1

Select()

#penguins %>% 
#   select(species)

filter()

penguins %>% 
  filter(island == "Biscoe" & year == 2007)

# A tibble: 44 × 8
   species island bill_length_mm bill_depth_mm flipper_len…¹ body_…² sex    year
   <fct>   <fct>           <dbl>         <dbl>         <int>   <int> <fct> <int>
 1 Adelie  Biscoe           37.8          18.3           174    3400 fema…  2007
 2 Adelie  Biscoe           37.7          18.7           180    3600 male   2007
 3 Adelie  Biscoe           35.9          19.2           189    3800 fema…  2007
 4 Adelie  Biscoe           38.2          18.1           185    3950 male   2007
 5 Adelie  Biscoe           38.8          17.2           180    3800 male   2007
 6 Adelie  Biscoe           35.3          18.9           187    3800 fema…  2007
 7 Adelie  Biscoe           40.6          18.6           183    3550 male   2007
 8 Adelie  Biscoe           40.5          17.9           187    3200 fema…  2007
 9 Adelie  Biscoe           37.9          18.6           172    3150 fema…  2007
10 Adelie  Biscoe           40.5          18.9           180    3950 male   2007
# … with 34 more rows, and abbreviated variable names ¹​flipper_length_mm,
#   ²​body_mass_g
# ℹ Use `print(n = ...)` to see more rows
…
mutate()

penguins %>% 
  mutate(weight_in_kg = body_mass_g / 1000)

# A tibble: 344 × 9
   species island    bill_length_mm bill_d…¹ flipp…² body_…³ sex    year weigh…⁴
   <fct>   <fct>              <dbl>    <dbl>   <int>   <int> <fct> <int>   <dbl>
 1 Adelie  Torgersen           39.1     18.7     181    3750 male   2007    3.75
 2 Adelie  Torgersen           39.5     17.4     186    3800 fema…  2007    3.8 
 3 Adelie  Torgersen           40.3     18       195    3250 fema…  2007    3.25
 4 Adelie  Torgersen           NA       NA        NA      NA <NA>   2007   NA   
 5 Adelie  Torgersen           36.7     19.3     193    3450 fema…  2007    3.45
 6 Adelie  Torgersen           39.3     20.6     190    3650 male   2007    3.65
 7 Adelie  Torgersen           38.9     17.8     181    3625 fema…  2007    3.62
 8 Adelie  Torgersen           39.2     19.6     195    4675 male   2007    4.68
 9 Adelie  Torgersen           34.1     18.1     193    3475 <NA>   2007    3.48
10 Adelie  Torgersen           42       20.2     190    4250 <NA>   2007    4.25
# … with 334 more rows, and abbreviated variable names ¹​bill_depth_mm,
#   ²​flipper_length_mm, ³​body_mass_g, ⁴​weight_in_kg
# ℹ Use `print(n = ...)` to see more rows
…
Pivoting data: wider to long

penguins %>% 
  pivot_longer(contains("mm"), 
               names_to = "characteristic", 
               values_to = "values")

# A tibble: 1,032 × 7
   species island    body_mass_g sex     year characteristic    values
   <fct>   <fct>           <int> <fct>  <int> <chr>              <dbl>
 1 Adelie  Torgersen        3750 male    2007 bill_length_mm      39.1
 2 Adelie  Torgersen        3750 male    2007 bill_depth_mm       18.7
 3 Adelie  Torgersen        3750 male    2007 flipper_length_mm  181  
 4 Adelie  Torgersen        3800 female  2007 bill_length_mm      39.5
 5 Adelie  Torgersen        3800 female  2007 bill_depth_mm       17.4
 6 Adelie  Torgersen        3800 female  2007 flipper_length_mm  186  
 7 Adelie  Torgersen        3250 female  2007 bill_length_mm      40.3
 8 Adelie  Torgersen        3250 female  2007 bill_depth_mm       18  
 9 Adelie  Torgersen        3250 female  2007 flipper_length_mm  195  
10 Adelie  Torgersen          NA <NA>    2007 bill_length_mm      NA  
# … with 1,022 more rows
# ℹ Use `print(n = ...)` to see more rows
…
